{
    "users": [
    {
        "id": 1,
        "name": "Денис",
        "secondName": "Топорков",
        "age": 30,
        "rating": 115
    },
    {
        "id": 2,
        "name": "Лукьян",
        "secondName": "Рагозин",
        "age": 22,
        "rating": 22
    },
    {
        "id": 3,
        "name": "Ярослав",
        "secondName": "Рыжов",
        "age": 45,
        "rating": 10
    },
    {
        "id": 4,
        "name": "Денис",
        "secondName": "Топорков",
        "age": 55,
        "rating": 102
    },
    {
        "id": 5,
        "name": "Артем",
        "secondName": "Кашников",
        "age": 22,
        "rating": 97
    },
    {
        "id": 6,
        "name": "Лада",
        "secondName": "Боярская",
        "age": 25,
        "rating": 15
    },
    {
        "id": 7,
        "name": "Иосиф",
        "secondName": "Южанин",
        "age": 41,
        "rating": 0
    },
    {
        "id": 8,
        "name": "Станислав",
        "secondName": "Качаев",
        "age": 34,
        "rating": 0
    },
    {
        "id": 9,
        "name": "Эдуард",
        "secondName": "Бузинский",
        "age": 32,
        "rating": 200
    }]
}